"ATCOCode","NaptanCode","PlateCode","CleardownCode","CommonName","CommonNameLang","ShortCommonName","ShortCommonNameLang","Landmark","LandmarkLang","Street","StreetLang","Crossing","CrossingLang","Indicator","IndicatorLang","Bearing","NptgLocalityCode","LocalityName","ParentLocalityName","GrandParentLocalityName","Town","TownLang","Suburb","SuburbLang","LocalityCentre","GridType","Easting","Northing","Longitude","Latitude","StopType","BusStopType","TimingStatus","DefaultWaitTime","Notes","NotesLang","AdministrativeAreaCode","CreationDateTime","ModificationDateTime","RevisionNumber","Modification","Status"
"5820AWN26274","nptgdwm","","","The Legion","","Port Talbot Royal British Legion","","Port Talbot British Legion","","TALBOT ROAD","","Eagle Street","","O/S","","NW","N0078801","Port Talbot","","","","","","","1","U",276858,189535,-3.7790117903,51.5911684321,"BCT","MKD","OTH","","","","034","2000-01-01T00:00:00","2016-10-17T11:41:29",1,"rev","act"
"5820AWN26259","nptgjap","","","PLAZA","","Port Talbot Royal British Legion","","Port Talbot British Legion","","Talbot Road","","Eagle Street","","","","SE","N0078801","Port Talbot","","","","","","","1","U",276866,189545,-3.7788998780,51.5912600519,"BCT","MKD","OTH","","","","034","2000-01-01T00:00:00","2012-07-12T00:00:00",0,"new","act"
"5820AWN26438","nptajtj","","","Ty`n y Twr Club","","","","","","St Illtyd`s Drive","","St Illtyd`s Close","","NE - bound","","NE","E0054410","Baglan","","","","","","","1","U",275470,192458,-3.8000765776,51.6171316877,"BCT","MKD","OTH","","","","034","2000-01-01T00:00:00","2012-07-06T00:00:00",0,"new","act"
"5820AWN26361","nptgwpd","","","Parkway Station","","Port Talbot Parkway Railway Station","","Port Talbot Railway Station","","Heilbronn Way","","---","","2200000","","NW","N0078801","Port Talbot","","","","","","","1","U",276693,189689,-3.7814465684,51.5925163063,"BCT","MKD","OTH","","","","034","2000-01-01T00:00:00","2016-10-17T11:39:34",2,"rev","del"
"2900B484","NFOAGJDT","","","church","en","church","en","Church Road","en","The Street","en","","","opp","en","NW","E0048637","Briningham","","","","","","","0","U",603756,334334,1.02574932243,52.8678931726,"BCT","CUS","OTH","","","","091","2003-02-22T14:04:04","2018-05-29T10:00:39",1,"rev","act"
"2900B482","NFOAGJDM","","","church","en","church","en","Church Road","en","The Street","en","","","adj","en","E","E0048637","Briningham","","","","","","","0","U",603781,334348,1.02612893352,52.8680093910,"BCT","CUS","OTH","","","","091","2003-02-22T14:04:04","2009-02-10T00:00:00",2,"rev","act"
