{"type":"FeatureCollection","geocoding":{"creation_date":"2016-10-12","generator":{"author":{"name":"Mapzen"},"package":"fences-builder","version":"0.1.2"},"license":"ODbL (see http://www.openstreetmap.org/copyright)"},"features":[{"id":3831712,"osm_type":"relation","type":"Feature","name":"Central Singapore Community Development Council","properties":{"name":"Central Singapore Community Development Council","boundary":"administrative","wikidata":"Q2544592","admin_level":"6"},"geometry":{"type":"MultiPolygon","coordinates":[[[[103.9021275,1.4278249999999997],[103.8978611,1.4279443999999997],[103.88613889999999,1.4351388999999999],[103.8778899,1.4454087999999998],[103.8622126,1.4263074],[103.8573335,1.4178331999999996],[103.85143829999998,1.4121582],[103.8486503,1.412402],[103.84833669999999,1.4131510999999999],[103.84769200000001,1.4132381999999997],[103.84762230000001,1.4139348999999997],[103.84619350000001,1.4154677999999998],[103.84389340000001,1.4148232999999997],[103.8392585,1.4130639999999997],[103.838794,1.414362],[103.83723920000001,1.4150831999999998],[103.8359886,1.4157206999999996],[103.8356053,1.4154941999999995],[103.8352917,1.4156857999999999],[103.8355356,1.4162432999999999],[103.8353439,1.4163302999999998],[103.83576209999998,1.4171315999999996],[103.83372340000001,1.4182289999999997],[103.83357749999999,1.4183019],[103.83222490000001,1.4189781],[103.8314757,1.4208593999999999],[103.8292802,1.4196225999999996],[103.82574299999999,1.4171315999999996],[103.82393079999999,1.4165741999999997],[103.82272849999998,1.4123412999999998],[103.8195398,1.4055303999999997],[103.81781480000001,1.4028651999999997],[103.8172921,1.4017329999999997],[103.81715270000001,1.4011406999999998],[103.81727460000002,1.4005135999999998],[103.81574129999998,1.3997993999999998],[103.8151314,1.3997472],[103.8146784,1.3993117],[103.81281390000001,1.3992768],[103.8124306,1.3998865],[103.81147229999999,1.4000781],[103.8094336,1.3986323],[103.8137897,1.3922394],[103.81493970000001,1.3868045],[103.8148875,1.3805161000000001],[103.81706550000001,1.3764922],[103.81809360000001,1.3754991999999997],[103.8181459,1.3737573],[103.8170481,1.3705346999999999],[103.8165777,1.3693501000000001],[103.81586320000001,1.3680611],[103.8130405,1.3617202999999998],[103.81103660000001,1.3593164],[103.8102874,1.3586022],[103.807726,1.3580099],[103.80702900000001,1.3564770000000002],[103.80331749999999,1.3512859000000002],[103.8004948,1.348551],[103.79927500000001,1.3466696999999999],[103.8037009,1.3418791999999997],[103.8060009,1.3395101],[103.81164650000001,1.3344584000000002],[103.8127268,1.3339881],[103.8143125,1.3335002999999999],[103.81635109999999,1.3325770000000001],[103.8139117,1.3282743],[103.8136503,1.3254523],[103.8130927,1.3222295999999998],[103.81196010000001,1.3204876],[103.81077529999999,1.3196689],[103.80892829999999,1.3187979],[103.8070464,1.3168642999999998],[103.80518199999999,1.3151571000000002],[103.80457209999999,1.3143905999999999],[103.8036312,1.3111853],[103.8016448,1.3056283999999998],[103.8014531,1.3030328],[103.8008607,1.3003326],[103.79547029999999,1.3049642999999997],[103.79434900000001,1.3019216999999996],[103.79296910000001,1.3001972],[103.7926487,1.2990639999999998],[103.79267340000001,1.2984235],[103.79301330000001,1.298398],[103.7937625,1.2981367],[103.79364060000002,1.2968128],[103.79378,1.2963076],[103.7944421,1.2954191999999998],[103.7957664,1.2946004],[103.7958186,1.2932241999999996],[103.7954004,1.2923184],[103.79510420000001,1.2918131999999998],[103.79442470000002,1.2912035],[103.79477320000001,1.2905415],[103.7943375,1.2902977],[103.79367540000001,1.2898272999999998],[103.7929784,1.2890608],[103.79904760000001,1.2850898],[103.80104360000001,1.2841537],[103.8011175,1.2833899999999998],[103.8021279,1.2815423],[103.8034339,1.2813451999999999],[103.8041978,1.2813697999999998],[103.8062431,1.2821089],[103.8073027,1.2821335],[103.80961900000001,1.2817146999999998],[103.81366030000001,1.2811727],[103.81602600000001,1.2808771],[103.81747440000001,1.2800328],[103.81606980000001,1.2771010999999999],[103.8151704,1.2754997999999997],[103.81456660000002,1.2747361],[103.8137165,1.2739969999999998],[103.812509,1.2730855],[103.81197920000001,1.2725804],[103.81160960000003,1.2719275999999997],[103.81133849999999,1.2708065999999998],[103.8115973,1.2707141999999998],[103.81216400000001,1.2703261999999997],[103.81197920000001,1.2696549],[103.81144330000001,1.2688665],[103.8110551,1.2679489],[103.8106855,1.2674869],[103.81121530000001,1.2675977999999999],[103.81153570000001,1.2673822],[103.81184370000001,1.2672837],[103.8122872,1.2662182],[103.81281779999999,1.2653266999999997],[103.81564060000001,1.2617380999999999],[103.82247109999997,1.2613199999999998],[103.82477109999998,1.2617729],[103.8291273,1.2642815],[103.83285609999999,1.2656053999999999],[103.8363759,1.2657098999999998],[103.83996540000001,1.2641769],[103.8677053,1.238116],[103.88074999999999,1.20725],[103.9184908,1.2226474],[103.86728620000001,1.2886364],[103.8651177,1.2947461],[103.86492060000002,1.2983921999999999],[103.8660048,1.2999688999999999],[103.8689619,1.3011514],[103.869849,1.3028265999999997],[103.86835079999999,1.3054534],[103.8687697,1.3065128000000001],[103.870125,1.3076459999999999],[103.87027289999999,1.3086807],[103.87007569999999,1.3096660999999998],[103.87017429999999,1.3110704],[103.8692625,1.3119325999999998],[103.86894219999999,1.3127209999999998],[103.86906540000001,1.3139527],[103.8695829,1.3153077],[103.8700264,1.3158496999999998],[103.87234279999997,1.3173401],[103.8725646,1.3187321],[103.8729096,1.3190769],[103.8734394,1.3193232999999998],[103.87452360000002,1.3193355999999998],[103.8749056,1.3194834],[103.87538609999997,1.3198652999999998],[103.87577659999998,1.320233],[103.8748531,1.3209472],[103.87426070000001,1.3215394999999999],[103.8718212,1.3249103],[103.87060149999999,1.3263474000000002],[103.8699742,1.3269833],[103.86901590000001,1.3277322999999999],[103.8683624,1.3281068],[103.8673119,1.3285801000000002],[103.8648463,1.3294248999999998],[103.8638531,1.3299213999999997],[103.86310390000001,1.330235],[103.86232849999999,1.3304701],[103.8622762,1.3341631],[103.86206709999999,1.3381871000000003],[103.8617186,1.3397898],[103.86120460000002,1.3417233999999998],[103.86055990000001,1.3434131],[103.85914249999999,1.3433448],[103.8574053,1.3432709],[103.857282,1.3450815999999999],[103.8571095,1.3464489000000002],[103.8570726,1.3467445],[103.8590316,1.347385],[103.85726970000002,1.3524229],[103.8569617,1.3537285999999997],[103.8567892,1.3554899999999999],[103.8571095,1.3571775000000001],[103.85874819999998,1.3618951999999998],[103.86070729999999,1.3674995999999997],[103.8609291,1.3686698],[103.860966,1.3693473],[103.8646623,1.3706406],[103.8655002,1.371084],[103.8664612,1.3716259999999998],[103.86722510000001,1.3718724],[103.86824779999999,1.3719215999999996],[103.86946760000001,1.3717985],[103.87151279999999,1.3712195],[103.87635579999998,1.3696831999999999],[103.87700879999998,1.3741422],[103.8770457,1.3754355],[103.87700879999998,1.3766919],[103.8766145,1.3788721000000002],[103.87670729999998,1.3805559000000003],[103.8772187,1.3811841],[103.8771324,1.3829147],[103.87848159999999,1.3850209999999998],[103.8802681,1.3860618],[103.88044679999999,1.3863759000000002],[103.88073019999999,1.3882297],[103.8811121,1.3889379000000002],[103.8815803,1.3898863],[103.88177749999998,1.3906808000000002],[103.88162340000002,1.3915491999999998],[103.88154340000001,1.3925407],[103.8817097,1.3931996999999998],[103.8821286,1.3936801],[103.88406300000001,1.394801],[103.88498709999999,1.3957802],[103.8870305,1.4035348999999997],[103.8880586,1.4050155],[103.89177,1.4076632999999996],[103.89509809999998,1.4110251999999996],[103.89577769999998,1.4120181],[103.89628300000001,1.4132199999999997],[103.89929740000001,1.4188986999999997],[103.9021275,1.4278249999999997]]]]}}
,
{"id":3831714,"osm_type":"relation","type":"Feature","name":"North West Community Development Council","properties":{"name":"North West Community Development Council","boundary":"administrative","wikidata":"Q7057238","admin_level":"6"},"geometry":{"type":"MultiPolygon","coordinates":[[[[103.87502779999998,1.4489721999999998],[103.8681667,1.4565278],[103.8649722,1.4588610999999998],[103.8586667,1.4629443999999998],[103.85199999999999,1.4661666999999998],[103.83416670000001,1.4729999999999999],[103.8221667,1.4766943999999997],[103.81266670000001,1.4784722],[103.80366670000001,1.4765],[103.7904722,1.4651389],[103.7711111,1.4527778],[103.7710278,1.4527221999999997],[103.76069440000002,1.4483889],[103.7620947,1.4387781],[103.7620598,1.4375935999999996],[103.7617984,1.4368444999999999],[103.76049160000001,1.4355555],[103.7601083,1.4351549],[103.7602128,1.4345625999999998],[103.760631,1.4337961999999995],[103.76078779999999,1.4322632999999998],[103.76120600000002,1.4281001],[103.76151970000002,1.4271595],[103.7626523,1.4262362999999998],[103.76169390000003,1.4253130999999999],[103.7600908,1.4243028],[103.7572681,1.4235362999999996],[103.7567802,1.4232227999999998],[103.75622260000002,1.4224736999999998],[103.7551945,1.4206272999999998],[103.75482860000001,1.4196343999999996],[103.7546718,1.4164815],[103.7548983,1.4151751],[103.7558392,1.4133285999999996],[103.75571729999999,1.4099492999999996],[103.7561703,1.4073711999999996],[103.75622260000002,1.4040963999999998],[103.7558567,1.4016924999999998],[103.75526420000001,1.3989577000000002],[103.7538354,1.3944112],[103.75435809999999,1.391328],[103.7550203,1.3887847],[103.7563271,1.3866943999999999],[103.75770370000001,1.384935],[103.7590976,1.3835589000000001],[103.76059620000001,1.3809285],[103.7617984,1.3786814],[103.7620772,1.3776188],[103.7634189,1.3710691],[103.76580609999999,1.36708],[103.76751370000002,1.3646064],[103.76763570000001,1.3635611999999997],[103.76718260000001,1.3620283],[103.76711290000001,1.3613141],[103.76754860000001,1.3574642999999997],[103.7684198,1.3562101000000002],[103.76913420000001,1.3545726],[103.7697441,1.3527784],[103.7701623,1.3501480000000001],[103.77024940000001,1.3490506],[103.77150390000001,1.3471867],[103.77193960000001,1.3465246999999998],[103.7730896,1.3457059999999998],[103.7752112,1.3444224],[103.7754245,1.3443124000000002],[103.77624340000001,1.3437200999999999],[103.77901390000001,1.3408981],[103.77859579999999,1.3403059000000002],[103.7776374,1.3380587000000002],[103.77674869999998,1.3368915999999997],[103.7749366,1.3352889000000001],[103.7718524,1.3336515],[103.7689774,1.3324495],[103.7669561,1.332223],[103.76451670000002,1.3329198],[103.76415080000001,1.3304635999999999],[103.76406360000003,1.3290004],[103.76430760000001,1.3238789],[103.76659020000001,1.3230601999999998],[103.7674963,1.3225898],[103.76859400000001,1.3211961999999997],[103.77056300000001,1.3192104],[103.77177689999999,1.3183537],[103.7753659,1.3156847999999999],[103.77538709999997,1.3156515],[103.7754219,1.3156417999999999],[103.7776171,1.3139931999999996],[103.77859079999999,1.3130409],[103.7791286,1.3127888],[103.78160910000001,1.3121825000000003],[103.78450450000001,1.3110492999999999],[103.78823779999999,1.3081791999999999],[103.789051,1.3082531000000002],[103.78981490000001,1.3083147],[103.79045560000002,1.3081176],[103.79194640000001,1.3075632999999998],[103.79406570000002,1.306233],[103.79547029999999,1.3049642999999997],[103.8008607,1.3003326],[103.8014531,1.3030328],[103.8016448,1.3056283999999998],[103.8036312,1.3111853],[103.80457209999999,1.3143905999999999],[103.80518199999999,1.3151571000000002],[103.8070464,1.3168642999999998],[103.80892829999999,1.3187979],[103.81077529999999,1.3196689],[103.81196010000001,1.3204876],[103.8130927,1.3222295999999998],[103.8136503,1.3254523],[103.8139117,1.3282743],[103.81635109999999,1.3325770000000001],[103.8143125,1.3335002999999999],[103.8127268,1.3339881],[103.81164650000001,1.3344584000000002],[103.8060009,1.3395101],[103.8037009,1.3418791999999997],[103.79927500000001,1.3466696999999999],[103.8004948,1.348551],[103.80331749999999,1.3512859000000002],[103.80702900000001,1.3564770000000002],[103.807726,1.3580099],[103.8102874,1.3586022],[103.81103660000001,1.3593164],[103.8130405,1.3617202999999998],[103.81586320000001,1.3680611],[103.8165777,1.3693501000000001],[103.8170481,1.3705346999999999],[103.8181459,1.3737573],[103.81809360000001,1.3754991999999997],[103.81706550000001,1.3764922],[103.8148875,1.3805161000000001],[103.81493970000001,1.3868045],[103.8137897,1.3922394],[103.8094336,1.3986323],[103.81147229999999,1.4000781],[103.8124306,1.3998865],[103.81281390000001,1.3992768],[103.8146784,1.3993117],[103.8151314,1.3997472],[103.81574129999998,1.3997993999999998],[103.81727460000002,1.4005135999999998],[103.81715270000001,1.4011406999999998],[103.8172921,1.4017329999999997],[103.81781480000001,1.4028651999999997],[103.8195398,1.4055303999999997],[103.82272849999998,1.4123412999999998],[103.82393079999999,1.4165741999999997],[103.82574299999999,1.4171315999999996],[103.8292802,1.4196225999999996],[103.8314757,1.4208593999999999],[103.83222490000001,1.4189781],[103.83357749999999,1.4183019],[103.83372340000001,1.4182289999999997],[103.83576209999998,1.4171315999999996],[103.8353439,1.4163302999999998],[103.8355356,1.4162432999999999],[103.8352917,1.4156857999999999],[103.8356053,1.4154941999999995],[103.8359886,1.4157206999999996],[103.83723920000001,1.4150831999999998],[103.838794,1.414362],[103.8392585,1.4130639999999997],[103.84389340000001,1.4148232999999997],[103.84619350000001,1.4154677999999998],[103.84762230000001,1.4139348999999997],[103.84769200000001,1.4132381999999997],[103.84833669999999,1.4131510999999999],[103.8486503,1.412402],[103.85143829999998,1.4121582],[103.8573335,1.4178331999999996],[103.8622126,1.4263074],[103.8778899,1.4454087999999998],[103.87502779999998,1.4489721999999998]]]]}}
,
{"id":3831713,"osm_type":"relation","type":"Feature","name":"North East Community Development Council","properties":{"name":"North East Community Development Council","boundary":"administrative","wikidata":"Q3710534","admin_level":"6"},"geometry":{"type":"MultiPolygon","coordinates":[[[[103.9780243,1.3796127],[103.97349390000001,1.3882354000000001],[103.96515640000001,1.3923877000000002],[103.95460960000003,1.3914023],[103.9461327,1.3950482],[103.93420600000002,1.4080061],[103.9230185,1.4189439],[103.9200435,1.4274485999999997],[103.91683330000001,1.4266666999999997],[103.91275,1.4275277999999998],[103.9021275,1.4278249999999997],[103.89929740000001,1.4188986999999997],[103.89628300000001,1.4132199999999997],[103.89577769999998,1.4120181],[103.89509809999998,1.4110251999999996],[103.89177,1.4076632999999996],[103.8880586,1.4050155],[103.8870305,1.4035348999999997],[103.88498709999999,1.3957802],[103.88406300000001,1.394801],[103.8821286,1.3936801],[103.8817097,1.3931996999999998],[103.88154340000001,1.3925407],[103.88162340000002,1.3915491999999998],[103.88177749999998,1.3906808000000002],[103.8815803,1.3898863],[103.8811121,1.3889379000000002],[103.88073019999999,1.3882297],[103.88044679999999,1.3863759000000002],[103.8802681,1.3860618],[103.87848159999999,1.3850209999999998],[103.8771324,1.3829147],[103.8772187,1.3811841],[103.87670729999998,1.3805559000000003],[103.8766145,1.3788721000000002],[103.87700879999998,1.3766919],[103.8770457,1.3754355],[103.87700879999998,1.3741422],[103.87635579999998,1.3696831999999999],[103.87606009999999,1.3682667],[103.8741626,1.3641773000000001],[103.87337409999998,1.3627115],[103.87330009999998,1.3622065],[103.87397779999998,1.3592749],[103.87413799999999,1.3583388],[103.8747294,1.3581170000000002],[103.87517289999998,1.3576489999999999],[103.8759492,1.3564418],[103.87801909999999,1.3538675],[103.8765036,1.3525125000000002],[103.8774893,1.3519951999999997],[103.8784996,1.3516749],[103.87914029999999,1.3510714],[103.87978099999998,1.3512069],[103.8808037,1.3509235999999998],[103.88128420000001,1.350825],[103.88281199999999,1.3509482],[103.88377299999999,1.351133],[103.8847957,1.3513547],[103.8861017,1.3519459],[103.8883195,1.3524386],[103.88931749999999,1.3524756],[103.8905742,1.3521307],[103.88976109999999,1.3499135],[103.88974869999998,1.3490142999999999],[103.88988429999999,1.348189],[103.89042640000001,1.3471912999999998],[103.890833,1.3458979999999998],[103.8913628,1.3432373],[103.89175709999999,1.3414513],[103.89205279999999,1.3407244999999999],[103.89247169999999,1.3402318],[103.8933095,1.3397514],[103.8944431,1.3392217999999998],[103.8952316,1.3386798],[103.9040411,1.3301560000000001],[103.9048913,1.3293675999999999],[103.9054457,1.3284068],[103.90584,1.3273967999999998],[103.90585229999999,1.3262265999999998],[103.9095487,1.3275322999999999],[103.91954100000001,1.3324717],[103.92385340000001,1.3343563],[103.925911,1.3350584],[103.92741420000002,1.335354],[103.92953340000001,1.3354895],[103.93351310000001,1.3353171000000001],[103.93305060000002,1.3379574],[103.93395000000001,1.3382037],[103.93466460000003,1.3385486],[103.9355887,1.3394971],[103.9331738,1.3418743999999998],[103.93155970000002,1.3435002999999999],[103.9297116,1.3452864],[103.92652040000002,1.3471094],[103.9247462,1.3483288],[103.92515279999999,1.3487599000000001],[103.92611380000001,1.3502381],[103.93234829999999,1.3469739],[103.93736290000001,1.3449168],[103.93795430000002,1.3447567],[103.93986410000001,1.3448305999999999],[103.94092370000003,1.345077],[103.94177390000002,1.3454834],[103.94291970000002,1.3462841],[103.94454610000001,1.3444118],[103.94569200000001,1.3437712999999998],[103.94728140000002,1.3435987999999999],[103.94964700000001,1.3438822],[103.9558938,1.3491418],[103.95701500000001,1.3498561999999998],[103.958321,1.3503611999999998],[103.9592081,1.3505337],[103.96029240000001,1.3506322],[103.96133970000001,1.350583],[103.96257179999999,1.3502995999999998],[103.96391480000001,1.3498561999999998],[103.96432140000002,1.3517161999999998],[103.96423510000001,1.3525907],[103.9634343,1.3552266999999998],[103.96292910000001,1.3568033],[103.9624732,1.3579611999999996],[103.96166000000002,1.3595009],[103.96113020000001,1.3602769000000001],[103.9748127,1.3738261999999997],[103.97736320000001,1.376419],[103.977972,1.3771913999999998],[103.97823340000001,1.3784979000000002],[103.9780243,1.3796127]]]]}}
,
{"id":3831716,"osm_type":"relation","type":"Feature","name":"South West Community Development Council","properties":{"name":"South West Community Development Council","boundary":"administrative","wikidata":"Q7568845","admin_level":"6"},"geometry":{"type":"MultiPolygon","coordinates":[[[[103.88074999999999,1.20725],[103.85983329999999,1.1959722],[103.80499999999999,1.1714444],[103.74069440000002,1.1303611],[103.67072219999999,1.1794444],[103.66069440000001,1.1881667],[103.57233329999998,1.1987500000000002],[103.56666670000001,1.1955],[103.60286109999998,1.2641666999999999],[103.61616670000001,1.3143056],[103.6170833,1.3154166999999999],[103.6178333,1.3216111],[103.6300556,1.3410556],[103.6355556,1.3520278000000001],[103.6376389,1.3573889000000001],[103.6408889,1.3629722],[103.64919440000001,1.3799166999999999],[103.65297219999998,1.3870833],[103.6535,1.3912778000000001],[103.6571667,1.4004166999999998],[103.6639167,1.4104721999999998],[103.6694444,1.4157499999999998],[103.67388889999998,1.4281389],[103.68333329999999,1.43725],[103.69405560000001,1.4398889],[103.69886109999999,1.4433055999999997],[103.70375,1.4507778],[103.71411110000001,1.4574721999999998],[103.72833329999999,1.4601389],[103.73980560000001,1.4546111],[103.74677779999999,1.4503889],[103.76069440000002,1.4483889],[103.7620947,1.4387781],[103.7620598,1.4375935999999996],[103.7617984,1.4368444999999999],[103.76049160000001,1.4355555],[103.7601083,1.4351549],[103.7602128,1.4345625999999998],[103.760631,1.4337961999999995],[103.76078779999999,1.4322632999999998],[103.76120600000002,1.4281001],[103.76151970000002,1.4271595],[103.7626523,1.4262362999999998],[103.76169390000003,1.4253130999999999],[103.7600908,1.4243028],[103.7572681,1.4235362999999996],[103.7567802,1.4232227999999998],[103.75622260000002,1.4224736999999998],[103.7551945,1.4206272999999998],[103.75482860000001,1.4196343999999996],[103.7546718,1.4164815],[103.7548983,1.4151751],[103.7558392,1.4133285999999996],[103.75571729999999,1.4099492999999996],[103.7561703,1.4073711999999996],[103.75622260000002,1.4040963999999998],[103.7558567,1.4016924999999998],[103.75526420000001,1.3989577000000002],[103.7538354,1.3944112],[103.75435809999999,1.391328],[103.7550203,1.3887847],[103.7563271,1.3866943999999999],[103.75770370000001,1.384935],[103.7590976,1.3835589000000001],[103.76059620000001,1.3809285],[103.7617984,1.3786814],[103.7620772,1.3776188],[103.7634189,1.3710691],[103.76580609999999,1.36708],[103.76751370000002,1.3646064],[103.76763570000001,1.3635611999999997],[103.76718260000001,1.3620283],[103.76711290000001,1.3613141],[103.76754860000001,1.3574642999999997],[103.7684198,1.3562101000000002],[103.76913420000001,1.3545726],[103.7697441,1.3527784],[103.7701623,1.3501480000000001],[103.77024940000001,1.3490506],[103.77150390000001,1.3471867],[103.77193960000001,1.3465246999999998],[103.7730896,1.3457059999999998],[103.7752112,1.3444224],[103.7754245,1.3443124000000002],[103.77624340000001,1.3437200999999999],[103.77901390000001,1.3408981],[103.77859579999999,1.3403059000000002],[103.7776374,1.3380587000000002],[103.77674869999998,1.3368915999999997],[103.7749366,1.3352889000000001],[103.7718524,1.3336515],[103.7689774,1.3324495],[103.7669561,1.332223],[103.76451670000002,1.3329198],[103.76415080000001,1.3304635999999999],[103.76406360000003,1.3290004],[103.76430760000001,1.3238789],[103.76659020000001,1.3230601999999998],[103.7674963,1.3225898],[103.76859400000001,1.3211961999999997],[103.77056300000001,1.3192104],[103.77177689999999,1.3183537],[103.7753659,1.3156847999999999],[103.77538709999997,1.3156515],[103.7754219,1.3156417999999999],[103.7776171,1.3139931999999996],[103.77859079999999,1.3130409],[103.7791286,1.3127888],[103.78160910000001,1.3121825000000003],[103.78450450000001,1.3110492999999999],[103.78823779999999,1.3081791999999999],[103.789051,1.3082531000000002],[103.78981490000001,1.3083147],[103.79045560000002,1.3081176],[103.79194640000001,1.3075632999999998],[103.79406570000002,1.306233],[103.79547029999999,1.3049642999999997],[103.79434900000001,1.3019216999999996],[103.79296910000001,1.3001972],[103.7926487,1.2990639999999998],[103.79267340000001,1.2984235],[103.79301330000001,1.298398],[103.7937625,1.2981367],[103.79364060000002,1.2968128],[103.79378,1.2963076],[103.7944421,1.2954191999999998],[103.7957664,1.2946004],[103.7958186,1.2932241999999996],[103.7954004,1.2923184],[103.79510420000001,1.2918131999999998],[103.79442470000002,1.2912035],[103.79477320000001,1.2905415],[103.7943375,1.2902977],[103.79367540000001,1.2898272999999998],[103.7929784,1.2890608],[103.79904760000001,1.2850898],[103.80104360000001,1.2841537],[103.8011175,1.2833899999999998],[103.8021279,1.2815423],[103.8034339,1.2813451999999999],[103.8041978,1.2813697999999998],[103.8062431,1.2821089],[103.8073027,1.2821335],[103.80961900000001,1.2817146999999998],[103.81366030000001,1.2811727],[103.81602600000001,1.2808771],[103.81747440000001,1.2800328],[103.81606980000001,1.2771010999999999],[103.8151704,1.2754997999999997],[103.81456660000002,1.2747361],[103.8137165,1.2739969999999998],[103.812509,1.2730855],[103.81197920000001,1.2725804],[103.81160960000003,1.2719275999999997],[103.81133849999999,1.2708065999999998],[103.8115973,1.2707141999999998],[103.81216400000001,1.2703261999999997],[103.81197920000001,1.2696549],[103.81144330000001,1.2688665],[103.8110551,1.2679489],[103.8106855,1.2674869],[103.81121530000001,1.2675977999999999],[103.81153570000001,1.2673822],[103.81184370000001,1.2672837],[103.8122872,1.2662182],[103.81281779999999,1.2653266999999997],[103.81564060000001,1.2617380999999999],[103.82247109999997,1.2613199999999998],[103.82477109999998,1.2617729],[103.8291273,1.2642815],[103.83285609999999,1.2656053999999999],[103.8363759,1.2657098999999998],[103.83996540000001,1.2641769],[103.8677053,1.238116],[103.88074999999999,1.20725]]]]}}
,
{"id":3831715,"osm_type":"relation","type":"Feature","name":"South East Community Development Council","properties":{"name":"South East Community Development Council","boundary":"administrative","wikidata":"Q1687545","admin_level":"6"},"geometry":{"type":"MultiPolygon","coordinates":[[[[104.12517559999999,1.2758195999999997],[104.11490400000001,1.2765354],[104.0927257,1.2733869],[104.0333333,1.2694999999999999],[103.9184908,1.2226474],[103.86728620000001,1.2886364],[103.8651177,1.2947461],[103.86492060000002,1.2983921999999999],[103.8660048,1.2999688999999999],[103.8689619,1.3011514],[103.869849,1.3028265999999997],[103.86835079999999,1.3054534],[103.8687697,1.3065128000000001],[103.870125,1.3076459999999999],[103.87027289999999,1.3086807],[103.87007569999999,1.3096660999999998],[103.87017429999999,1.3110704],[103.8692625,1.3119325999999998],[103.86894219999999,1.3127209999999998],[103.86906540000001,1.3139527],[103.8695829,1.3153077],[103.8700264,1.3158496999999998],[103.87234279999997,1.3173401],[103.8725646,1.3187321],[103.8729096,1.3190769],[103.8734394,1.3193232999999998],[103.87452360000002,1.3193355999999998],[103.8749056,1.3194834],[103.87538609999997,1.3198652999999998],[103.87577659999998,1.320233],[103.8748531,1.3209472],[103.87426070000001,1.3215394999999999],[103.8718212,1.3249103],[103.87060149999999,1.3263474000000002],[103.8699742,1.3269833],[103.86901590000001,1.3277322999999999],[103.8683624,1.3281068],[103.8673119,1.3285801000000002],[103.8648463,1.3294248999999998],[103.8638531,1.3299213999999997],[103.86310390000001,1.330235],[103.86232849999999,1.3304701],[103.8622762,1.3341631],[103.86206709999999,1.3381871000000003],[103.8617186,1.3397898],[103.86120460000002,1.3417233999999998],[103.86055990000001,1.3434131],[103.85914249999999,1.3433448],[103.8574053,1.3432709],[103.857282,1.3450815999999999],[103.8571095,1.3464489000000002],[103.8570726,1.3467445],[103.8590316,1.347385],[103.85726970000002,1.3524229],[103.8569617,1.3537285999999997],[103.8567892,1.3554899999999999],[103.8571095,1.3571775000000001],[103.85874819999998,1.3618951999999998],[103.86070729999999,1.3674995999999997],[103.8609291,1.3686698],[103.860966,1.3693473],[103.8646623,1.3706406],[103.8655002,1.371084],[103.8664612,1.3716259999999998],[103.86722510000001,1.3718724],[103.86824779999999,1.3719215999999996],[103.86946760000001,1.3717985],[103.87151279999999,1.3712195],[103.87635579999998,1.3696831999999999],[103.87606009999999,1.3682667],[103.8741626,1.3641773000000001],[103.87337409999998,1.3627115],[103.87330009999998,1.3622065],[103.87397779999998,1.3592749],[103.87413799999999,1.3583388],[103.8747294,1.3581170000000002],[103.87517289999998,1.3576489999999999],[103.8759492,1.3564418],[103.87801909999999,1.3538675],[103.8765036,1.3525125000000002],[103.8774893,1.3519951999999997],[103.8784996,1.3516749],[103.87914029999999,1.3510714],[103.87978099999998,1.3512069],[103.8808037,1.3509235999999998],[103.88128420000001,1.350825],[103.88281199999999,1.3509482],[103.88377299999999,1.351133],[103.8847957,1.3513547],[103.8861017,1.3519459],[103.8883195,1.3524386],[103.88931749999999,1.3524756],[103.8905742,1.3521307],[103.88976109999999,1.3499135],[103.88974869999998,1.3490142999999999],[103.88988429999999,1.348189],[103.89042640000001,1.3471912999999998],[103.890833,1.3458979999999998],[103.8913628,1.3432373],[103.89175709999999,1.3414513],[103.89205279999999,1.3407244999999999],[103.89247169999999,1.3402318],[103.8933095,1.3397514],[103.8944431,1.3392217999999998],[103.8952316,1.3386798],[103.9040411,1.3301560000000001],[103.9048913,1.3293675999999999],[103.9054457,1.3284068],[103.90584,1.3273967999999998],[103.90585229999999,1.3262265999999998],[103.9095487,1.3275322999999999],[103.91954100000001,1.3324717],[103.92385340000001,1.3343563],[103.925911,1.3350584],[103.92741420000002,1.335354],[103.92953340000001,1.3354895],[103.93351310000001,1.3353171000000001],[103.93305060000002,1.3379574],[103.93395000000001,1.3382037],[103.93466460000003,1.3385486],[103.9355887,1.3394971],[103.9331738,1.3418743999999998],[103.93155970000002,1.3435002999999999],[103.9297116,1.3452864],[103.92652040000002,1.3471094],[103.9247462,1.3483288],[103.92515279999999,1.3487599000000001],[103.92611380000001,1.3502381],[103.93234829999999,1.3469739],[103.93736290000001,1.3449168],[103.93795430000002,1.3447567],[103.93986410000001,1.3448305999999999],[103.94092370000003,1.345077],[103.94177390000002,1.3454834],[103.94291970000002,1.3462841],[103.94454610000001,1.3444118],[103.94569200000001,1.3437712999999998],[103.94728140000002,1.3435987999999999],[103.94964700000001,1.3438822],[103.9558938,1.3491418],[103.95701500000001,1.3498561999999998],[103.958321,1.3503611999999998],[103.9592081,1.3505337],[103.96029240000001,1.3506322],[103.96133970000001,1.350583],[103.96257179999999,1.3502995999999998],[103.96391480000001,1.3498561999999998],[103.96432140000002,1.3517161999999998],[103.96423510000001,1.3525907],[103.9634343,1.3552266999999998],[103.96292910000001,1.3568033],[103.9624732,1.3579611999999996],[103.96166000000002,1.3595009],[103.96113020000001,1.3602769000000001],[103.9748127,1.3738261999999997],[103.97736320000001,1.376419],[103.977972,1.3771913999999998],[103.97823340000001,1.3784979000000002],[103.9780243,1.3796127],[103.97349390000001,1.3882354000000001],[103.96515640000001,1.3923877000000002],[103.95460960000003,1.3914023],[103.9461327,1.3950482],[103.93420600000002,1.4080061],[103.9230185,1.4189439],[103.9200435,1.4274485999999997],[103.9233333,1.42825],[103.93341670000001,1.4304166999999999],[103.93769440000003,1.4304721999999999],[103.94252780000001,1.4278332999999996],[103.9525278,1.4253610999999997],[103.95755560000002,1.4244166999999999],[103.96066670000002,1.42475],[103.96680560000001,1.4221666999999998],[103.9724167,1.4219443999999997],[103.9799167,1.4244166999999999],[103.9835833,1.4242778],[103.98616670000001,1.4249166999999998],[103.9890278,1.4247778],[103.99291670000001,1.4249999999999998],[103.99525000000001,1.4236943999999996],[104.00286109999999,1.4206111],[104.0233056,1.4391388999999999],[104.0408333,1.4438889],[104.05747219999999,1.4398610999999997],[104.07119440000001,1.4346389],[104.07647219999998,1.4309166999999998],[104.08847219999998,1.4175832999999998],[104.0896111,1.4154999999999998],[104.09075,1.4124443999999998],[104.09266670000001,1.4059443999999996],[104.0930278,1.3998055999999999],[104.09247219999999,1.3942500000000002],[104.08955560000001,1.3846943999999999],[104.0835833,1.3687500000000001],[104.07972219999999,1.3575],[104.08527779999999,1.3466666999999999],[104.12611109999999,1.28925],[104.12517559999999,1.2758195999999997]]]]}}]}